---
http_interactions:
- request:
    method: get
    uri: https://api.bestbuy.com/v1/stores(area(80202,25))?apiKey=ru99w3xp6qu5848qvbgrznxq&format=json&pageSize=15&show=longName,distance,city,phone,storeType
    body:
      encoding: US-ASCII
      string: ''
    headers:
      User-Agent:
      - Faraday v0.9.2
      Accept-Encoding:
      - gzip;q=1.0,deflate;q=0.6,identity;q=0.3
      Accept:
      - "*/*"
  response:
    status:
      code: 200
      message: OK
    headers:
      Access-Control-Allow-Headers:
      - origin, x-requested-with, accept
      Access-Control-Allow-Methods:
      - GET
      Access-Control-Allow-Origin:
      - "*"
      Access-Control-Max-Age:
      - '3628800'
      Content-Type:
      - application/json; charset=UTF-8
      Date:
      - Wed, 02 Nov 2016 16:58:14 GMT
      Server:
      - Best Buy Public APIs
      X-Cache-Hit:
      - 'true'
      Content-Length:
      - '2917'
      Connection:
      - keep-alive
    body:
      encoding: UTF-8
      string: |-
        {
          "from": 1,
          "to": 15,
          "total": 17,
          "currentPage": 1,
          "totalPages": 2,
          "queryTime": "0.008",
          "totalTime": "0.019",
          "partial": false,
          "canonicalUrl": "/v1/stores(area(\"80202\",25))?show=longName,distance,city,phone,storeType&format=json&apiKey=ru99w3xp6qu5848qvbgrznxq",
          "stores": [
            {
              "longName": "Best Buy Mobile - Cherry Creek Shopping Center",
              "distance": 3.25,
              "city": "Denver",
              "phone": "303-270-9189",
              "storeType": "Mobile"
            },
            {
              "longName": "Best Buy - Belmar",
              "distance": 5.28,
              "city": "Lakewood",
              "phone": "303-742-8039",
              "storeType": "BigBox"
            },
            {
              "longName": "Best Buy - Colorado Blvd",
              "distance": 5.61,
              "city": "Denver",
              "phone": "303-758-5805",
              "storeType": "BigBox"
            },
            {
              "longName": "Best Buy - Denver West",
              "distance": 8.38,
              "city": "Lakewood",
              "phone": "303-273-5617",
              "storeType": "BigBox"
            },
            {
              "longName": "Best Buy - Westminster",
              "distance": 8.54,
              "city": "Westminster",
              "phone": "303-426-4434",
              "storeType": "BigBox"
            },
            {
              "longName": "Best Buy Mobile - Colorado Mills",
              "distance": 8.59,
              "city": "Lakewood",
              "phone": "303-278-0601",
              "storeType": "Mobile"
            },
            {
              "longName": "Best Buy - Northglenn",
              "distance": 9.12,
              "city": "Denver",
              "phone": "303-252-8677",
              "storeType": "BigBox"
            },
            {
              "longName": "Best Buy Mobile - Town Center at Aurora",
              "distance": 9.66,
              "city": "Aurora",
              "phone": "303-326-0848",
              "storeType": "Mobile"
            },
            {
              "longName": "Best Buy - Aurora",
              "distance": 9.83,
              "city": "Aurora",
              "phone": "303-338-5797",
              "storeType": "BigBox"
            },
            {
              "longName": "Best Buy - Littleton",
              "distance": 10.45,
              "city": "Littleton",
              "phone": "303-932-7830",
              "storeType": "BigBox"
            },
            {
              "longName": "Best Buy - Southglenn",
              "distance": 11.0,
              "city": "Centennial",
              "phone": "303-797-3246",
              "storeType": "BigBox"
            },
            {
              "longName": "Best Buy - I70 & Tower Rd",
              "distance": 11.73,
              "city": "Aurora",
              "phone": "303-373-9284",
              "storeType": "BigBox"
            },
            {
              "longName": "Best Buy Mobile - Flatiron Crossing Mall ",
              "distance": 14.44,
              "city": "Broomfield",
              "phone": "303-466-8624",
              "storeType": "Mobile"
            },
            {
              "longName": "Best Buy - S.E. Denver",
              "distance": 14.98,
              "city": "Lone Tree",
              "phone": "303-649-9474",
              "storeType": "BigBox"
            },
            {
              "longName": "Best Buy - S.E. Aurora",
              "distance": 18.51,
              "city": "Aurora",
              "phone": "303-693-0166",
              "storeType": "BigBox"
            }
          ],
          "warnings": "Distances are in terms of miles (default)"
        }
    http_version: 
  recorded_at: Wed, 02 Nov 2016 16:58:19 GMT
- request:
    method: get
    uri: https://api.bestbuy.com/v1/stores(area(80202,25))?apiKey=ru99w3xp6qu5848qvbgrznxq&format=json&pageSize=15&show=longName,distance,city,phone,storeType
    body:
      encoding: US-ASCII
      string: ''
    headers:
      User-Agent:
      - Faraday v0.9.2
      Accept-Encoding:
      - gzip;q=1.0,deflate;q=0.6,identity;q=0.3
      Accept:
      - "*/*"
  response:
    status:
      code: 200
      message: OK
    headers:
      Access-Control-Allow-Headers:
      - origin, x-requested-with, accept
      Access-Control-Allow-Methods:
      - GET
      Access-Control-Allow-Origin:
      - "*"
      Access-Control-Max-Age:
      - '3628800'
      Content-Type:
      - application/json; charset=UTF-8
      Date:
      - Wed, 02 Nov 2016 16:58:19 GMT
      Server:
      - Best Buy Public APIs
      X-Cache-Hit:
      - 'true'
      Content-Length:
      - '2917'
      Connection:
      - keep-alive
    body:
      encoding: UTF-8
      string: |-
        {
          "from": 1,
          "to": 15,
          "total": 17,
          "currentPage": 1,
          "totalPages": 2,
          "queryTime": "0.008",
          "totalTime": "0.019",
          "partial": false,
          "canonicalUrl": "/v1/stores(area(\"80202\",25))?show=longName,distance,city,phone,storeType&format=json&apiKey=ru99w3xp6qu5848qvbgrznxq",
          "stores": [
            {
              "longName": "Best Buy Mobile - Cherry Creek Shopping Center",
              "distance": 3.25,
              "city": "Denver",
              "phone": "303-270-9189",
              "storeType": "Mobile"
            },
            {
              "longName": "Best Buy - Belmar",
              "distance": 5.28,
              "city": "Lakewood",
              "phone": "303-742-8039",
              "storeType": "BigBox"
            },
            {
              "longName": "Best Buy - Colorado Blvd",
              "distance": 5.61,
              "city": "Denver",
              "phone": "303-758-5805",
              "storeType": "BigBox"
            },
            {
              "longName": "Best Buy - Denver West",
              "distance": 8.38,
              "city": "Lakewood",
              "phone": "303-273-5617",
              "storeType": "BigBox"
            },
            {
              "longName": "Best Buy - Westminster",
              "distance": 8.54,
              "city": "Westminster",
              "phone": "303-426-4434",
              "storeType": "BigBox"
            },
            {
              "longName": "Best Buy Mobile - Colorado Mills",
              "distance": 8.59,
              "city": "Lakewood",
              "phone": "303-278-0601",
              "storeType": "Mobile"
            },
            {
              "longName": "Best Buy - Northglenn",
              "distance": 9.12,
              "city": "Denver",
              "phone": "303-252-8677",
              "storeType": "BigBox"
            },
            {
              "longName": "Best Buy Mobile - Town Center at Aurora",
              "distance": 9.66,
              "city": "Aurora",
              "phone": "303-326-0848",
              "storeType": "Mobile"
            },
            {
              "longName": "Best Buy - Aurora",
              "distance": 9.83,
              "city": "Aurora",
              "phone": "303-338-5797",
              "storeType": "BigBox"
            },
            {
              "longName": "Best Buy - Littleton",
              "distance": 10.45,
              "city": "Littleton",
              "phone": "303-932-7830",
              "storeType": "BigBox"
            },
            {
              "longName": "Best Buy - Southglenn",
              "distance": 11.0,
              "city": "Centennial",
              "phone": "303-797-3246",
              "storeType": "BigBox"
            },
            {
              "longName": "Best Buy - I70 & Tower Rd",
              "distance": 11.73,
              "city": "Aurora",
              "phone": "303-373-9284",
              "storeType": "BigBox"
            },
            {
              "longName": "Best Buy Mobile - Flatiron Crossing Mall ",
              "distance": 14.44,
              "city": "Broomfield",
              "phone": "303-466-8624",
              "storeType": "Mobile"
            },
            {
              "longName": "Best Buy - S.E. Denver",
              "distance": 14.98,
              "city": "Lone Tree",
              "phone": "303-649-9474",
              "storeType": "BigBox"
            },
            {
              "longName": "Best Buy - S.E. Aurora",
              "distance": 18.51,
              "city": "Aurora",
              "phone": "303-693-0166",
              "storeType": "BigBox"
            }
          ],
          "warnings": "Distances are in terms of miles (default)"
        }
    http_version: 
  recorded_at: Wed, 02 Nov 2016 16:58:19 GMT
recorded_with: VCR 3.0.3
